%YAML 1.1
%TAG !u! tag:unity3d.com,2011:
--- !u!74 &7400000
AnimationClip:
  m_ObjectHideFlags: 0
  m_PrefabParentObject: {fileID: 0}
  m_PrefabInternal: {fileID: 0}
  m_Name: Treasure
  serializedVersion: 6
  m_Legacy: 0
  m_Compressed: 0
  m_UseHighQualityCurve: 1
  m_RotationCurves: []
  m_CompressedRotationCurves: []
  m_EulerCurves: []
  m_PositionCurves: []
  m_ScaleCurves: []
  m_FloatCurves: []
  m_PPtrCurves:
  - curve:
    - time: 0
      value: {fileID: 21300000, guid: 2d4f02cf9aae99949abf8be807c54ecb, type: 3}
    - time: 0.083333336
      value: {fileID: 21300000, guid: 3beb1b6eb160a0b40bf91fb2c92def3a, type: 3}
    - time: 0.16666667
      value: {fileID: 21300000, guid: 75b642a6be1d10040bdc4ff6f8d5ef1e, type: 3}
    - time: 0.25
      value: {fileID: 21300000, guid: 672276d4f8358e94ead2ef1f00c22963, type: 3}
    - time: 0.33333334
      value: {fileID: 21300000, guid: 050a2c71fda5df64b85e937d0af221a9, type: 3}
    - time: 0.41666666
      value: {fileID: 21300000, guid: b2f98235b0727144d958107e5598d1cf, type: 3}
    - time: 0.5
      value: {fileID: 21300000, guid: 6a0f1e18017a4024095462e5e7827304, type: 3}
    - time: 0.5833333
      value: {fileID: 21300000, guid: 42f7fe8f640b9554a9f204e43819779e, type: 3}
    - time: 0.6666667
      value: {fileID: 21300000, guid: 641371f3204fcd04195fd25e4398fa91, type: 3}
    - time: 0.75
      value: {fileID: 21300000, guid: 8f1042a199189974cbe430ff770e78f3, type: 3}
    - time: 0.8333333
      value: {fileID: 21300000, guid: ad89605574029b9468c8b99cbc2599b7, type: 3}
    - time: 0.9166667
      value: {fileID: 21300000, guid: 6e2e9b294ae325e478abd648762b2031, type: 3}
    - time: 1
      value: {fileID: 21300000, guid: 4b8b10653279788499c8efa03cb04701, type: 3}
    - time: 1.0833334
      value: {fileID: 21300000, guid: d970c16be6db5c947b72b4ef724e67dc, type: 3}
    - time: 1.1666666
      value: {fileID: 21300000, guid: 90886f6915b47ac498401ad198705cd1, type: 3}
    - time: 1.25
      value: {fileID: 21300000, guid: f56066f2ca052d344bbacf9f2d75a844, type: 3}
    - time: 1.3333334
      value: {fileID: 21300000, guid: 873fe8d06f28b4941b90f03e0130a338, type: 3}
    - time: 1.4166666
      value: {fileID: 21300000, guid: 2a9f116f5b652ac44b05f2e872b462d8, type: 3}
    - time: 1.5
      value: {fileID: 21300000, guid: adf35bb471e6cca4a85d9cd448b87e25, type: 3}
    - time: 1.5833334
      value: {fileID: 21300000, guid: cb4055d24c6bde64fb1239d6ec19c621, type: 3}
    - time: 1.6666666
      value: {fileID: 21300000, guid: 5030f1be5b654b649bdd606baa50fbb0, type: 3}
    - time: 1.75
      value: {fileID: 21300000, guid: f9ca4fdcac760594d8e2ca5cb80ff6e8, type: 3}
    - time: 1.8333334
      value: {fileID: 21300000, guid: cd40e1404a9a8644d9d5ba5086545466, type: 3}
    - time: 1.9166666
      value: {fileID: 21300000, guid: 2698ae7535bf6d54db3771b790da2c5f, type: 3}
    attribute: m_Sprite
    path: 
    classID: 212
    script: {fileID: 0}
  m_SampleRate: 12
  m_WrapMode: 0
  m_Bounds:
    m_Center: {x: 0, y: 0, z: 0}
    m_Extent: {x: 0, y: 0, z: 0}
  m_ClipBindingConstant:
    genericBindings:
    - serializedVersion: 2
      path: 0
      attribute: 0
      script: {fileID: 0}
      typeID: 212
      customType: 23
      isPPtrCurve: 1
    pptrCurveMapping:
    - {fileID: 21300000, guid: 2d4f02cf9aae99949abf8be807c54ecb, type: 3}
    - {fileID: 21300000, guid: 3beb1b6eb160a0b40bf91fb2c92def3a, type: 3}
    - {fileID: 21300000, guid: 75b642a6be1d10040bdc4ff6f8d5ef1e, type: 3}
    - {fileID: 21300000, guid: 672276d4f8358e94ead2ef1f00c22963, type: 3}
    - {fileID: 21300000, guid: 050a2c71fda5df64b85e937d0af221a9, type: 3}
    - {fileID: 21300000, guid: b2f98235b0727144d958107e5598d1cf, type: 3}
    - {fileID: 21300000, guid: 6a0f1e18017a4024095462e5e7827304, type: 3}
    - {fileID: 21300000, guid: 42f7fe8f640b9554a9f204e43819779e, type: 3}
    - {fileID: 21300000, guid: 641371f3204fcd04195fd25e4398fa91, type: 3}
    - {fileID: 21300000, guid: 8f1042a199189974cbe430ff770e78f3, type: 3}
    - {fileID: 21300000, guid: ad89605574029b9468c8b99cbc2599b7, type: 3}
    - {fileID: 21300000, guid: 6e2e9b294ae325e478abd648762b2031, type: 3}
    - {fileID: 21300000, guid: 4b8b10653279788499c8efa03cb04701, type: 3}
    - {fileID: 21300000, guid: d970c16be6db5c947b72b4ef724e67dc, type: 3}
    - {fileID: 21300000, guid: 90886f6915b47ac498401ad198705cd1, type: 3}
    - {fileID: 21300000, guid: f56066f2ca052d344bbacf9f2d75a844, type: 3}
    - {fileID: 21300000, guid: 873fe8d06f28b4941b90f03e0130a338, type: 3}
    - {fileID: 21300000, guid: 2a9f116f5b652ac44b05f2e872b462d8, type: 3}
    - {fileID: 21300000, guid: adf35bb471e6cca4a85d9cd448b87e25, type: 3}
    - {fileID: 21300000, guid: cb4055d24c6bde64fb1239d6ec19c621, type: 3}
    - {fileID: 21300000, guid: 5030f1be5b654b649bdd606baa50fbb0, type: 3}
    - {fileID: 21300000, guid: f9ca4fdcac760594d8e2ca5cb80ff6e8, type: 3}
    - {fileID: 21300000, guid: cd40e1404a9a8644d9d5ba5086545466, type: 3}
    - {fileID: 21300000, guid: 2698ae7535bf6d54db3771b790da2c5f, type: 3}
  m_AnimationClipSettings:
    serializedVersion: 2
    m_AdditiveReferencePoseClip: {fileID: 0}
    m_AdditiveReferencePoseTime: 0
    m_StartTime: 0
    m_StopTime: 2
    m_OrientationOffsetY: 0
    m_Level: 0
    m_CycleOffset: 0
    m_HasAdditiveReferencePose: 0
    m_LoopTime: 1
    m_LoopBlend: 0
    m_LoopBlendOrientation: 0
    m_LoopBlendPositionY: 0
    m_LoopBlendPositionXZ: 0
    m_KeepOriginalOrientation: 0
    m_KeepOriginalPositionY: 1
    m_KeepOriginalPositionXZ: 0
    m_HeightFromFeet: 0
    m_Mirror: 0
  m_EditorCurves: []
  m_EulerEditorCurves: []
  m_HasGenericRootTransform: 0
  m_HasMotionFloatCurves: 0
  m_GenerateMotionCurves: 0
  m_Events: []
