%YAML 1.1
%TAG !u! tag:unity3d.com,2011:
--- !u!78 &1
TagManager:
  serializedVersion: 2
  tags: []
  layers:
  - Default
  - TransparentFX
  - Ignore Raycast
  - 
  - Water
  - UI
  - 
  - 
  - 
  - 
  - 
  - 
  - 
  - 
  - 
  - 
  - 
  - 
  - 
  - 
  - 
  - 
  - 
  - 
  - 
  - 
  - 
  - 
  - 
  - 
  - 
  - 
  m_SortingLayers:
  - name: Floor
    uniqueID: 4061806283
    locked: 0
  - name: GroundObjects
    uniqueID: 3691050201
    locked: 0
  - name: Walls
    uniqueID: 1780974495
    locked: 0
  - name: Pits
    uniqueID: 212158309
    locked: 0
  - name: Default
    uniqueID: 0
    locked: 0
  - name: Player
    uniqueID: 700328019
    locked: 0
  - name: Effects
    uniqueID: 2580358885
    locked: 0
  - name: Fog
    uniqueID: 3204924485
    locked: 0
  - name: UI
    uniqueID: 2487254147
    locked: 0
